<?xml version="1.0" encoding="utf-8"?>
<!-- Generator: Adobe Illustrator 15.1.0, SVG Export Plug-In . SVG Version: 6.00 Build 0)  -->
<!DOCTYPE svg PUBLIC "-//W3C//DTD SVG 1.1//EN" "http://www.w3.org/Graphics/SVG/1.1/DTD/svg11.dtd">
<svg version="1.1" id="Layer_1" xmlns="http://www.w3.org/2000/svg" xmlns:xlink="http://www.w3.org/1999/xlink" x="0px" y="0px"
	 width="420px" height="60px" viewBox="0 0 420 60" enable-background="new 0 0 420 60" xml:space="preserve">
<g>
	<path fill-rule="evenodd" clip-rule="evenodd" fill="#223D7D" d="M6.237,39.713l1.466-5.075h5.801l1.374,5.075h5.375l-5.34-19.36
		c-0.306-1.145-0.977-1.673-2.141-1.673H5.169v1.828h0.639c0.794,0,1.225,0.32,1.225,0.948c0,0.411-0.09,0.757-0.403,1.699
		L1.285,39.713H6.237L6.237,39.713z M12.771,31.195H8.469l2.29-7.723L12.771,31.195z"/>
	<path fill-rule="evenodd" clip-rule="evenodd" fill="#223D7D" d="M26.442,39.713V20.291c0-1.012-0.574-1.612-1.524-1.612h-4.7
		v1.828h0.306c0.792,0,1.128,0.348,1.128,1.174v18.031H26.442z"/>
	<path fill-rule="evenodd" clip-rule="evenodd" fill="#223D7D" d="M34.593,39.713V20.291c0-1.012-0.585-1.612-1.528-1.612h-4.698
		v1.828h0.298c0.798,0,1.133,0.348,1.133,1.174v18.031H34.593z"/>
	<path fill-rule="evenodd" clip-rule="evenodd" fill="#223D7D" d="M42.86,39.713v-14.16c0-1.008-0.583-1.604-1.53-1.604h-4.637
		v1.792h0.271c0.794,0,1.129,0.377,1.129,1.198v12.773H42.86L42.86,39.713z M42.951,20.599c0-1.411-1.012-2.263-2.748-2.263
		c-1.709,0-2.751,0.853-2.751,2.263c0,1.427,1.042,2.271,2.751,2.271C41.938,22.87,42.951,22.025,42.951,20.599z"/>
	<path fill-rule="evenodd" clip-rule="evenodd" fill="#223D7D" d="M46.908,28.459c1.59-0.789,3.331-1.232,4.703-1.232
		c1.286,0,1.745,0.473,1.745,1.852v0.354c-1.953,0.317-2.565,0.447-3.665,0.697c-0.635,0.154-1.226,0.342-1.805,0.596
		c-1.926,0.799-2.834,2.333-2.834,4.698c0,2.991,1.249,4.442,3.842,4.442c0.947,0,1.803-0.187,2.569-0.501
		c0.669-0.306,1.066-0.564,2.047-1.355v0.219c0,0.978,0.485,1.483,1.433,1.483h4.366v-1.702h-0.215
		c-0.824,0-1.128-0.381-1.128-1.387v-7.507c0-4.001-1.344-5.397-5.225-5.397c-1.249,0-2.469,0.165-3.658,0.449
		c-1.197,0.28-1.81,0.533-3.236,1.26L46.908,28.459L46.908,28.459z M53.356,32.138v3.064c-0.798,0.854-1.77,1.362-2.593,1.362
		c-0.86,0-1.16-0.434-1.16-1.617c0-1.164,0.238-1.696,1.095-2.038C51.338,32.622,52.163,32.368,53.356,32.138z"/>
	<path fill-rule="evenodd" clip-rule="evenodd" fill="#223D7D" d="M66.261,39.713V29.054c0.796-0.916,1.618-1.33,2.564-1.33
		c1.012,0,1.253,0.414,1.253,1.998v9.991h4.764V28.992c0-2.494-0.177-3.283-0.942-4.127c-0.643-0.731-1.621-1.105-2.877-1.105
		c-1.862,0-3.174,0.597-4.937,2.299v-0.628c0-0.981-0.497-1.482-1.472-1.482h-4.522v1.792h0.275c0.793,0,1.134,0.377,1.134,1.198
		v12.773H66.261z"/>
	<path fill-rule="evenodd" clip-rule="evenodd" fill="#223D7D" d="M88.975,36.402h-6.657l6.351-9.203v-3.253H78.72
		c-1.132,0-1.649,0.533-1.649,1.705v2.863h1.769v-0.282c0-0.723,0.368-1.071,1.125-1.071h3.424l-6.412,9.303v3.248h11.999V36.402z"
		/>
	<path fill-rule="evenodd" clip-rule="evenodd" fill="#223D7D" d="M127.349,30.25c0-9.232-6.688-16.147-15.633-16.147
		c-8.949,0-15.638,6.915-15.638,16.147c0.002,9.244,6.688,16.143,15.638,16.143C120.661,46.393,127.349,39.494,127.349,30.25
		L127.349,30.25z M124.692,30.25c0,7.853-5.465,13.563-12.976,13.563c-7.512,0-12.979-5.711-12.979-13.563
		c0-7.853,5.467-13.562,12.979-13.562C119.227,16.688,124.692,22.433,124.692,30.25L124.692,30.25z M107.471,39.307h-4.487V25.431
		c0-1.395,0.516-1.896,1.83-1.896h2.657V39.307L107.471,39.307z M115.964,39.307V23.536h2.649c1.314,0,1.835,0.5,1.835,1.896v13.875
		H115.964L115.964,39.307z M113.97,39.307h-4.52V22.941c0-1.146-0.177-1.361-1.101-1.361h-0.24v-1.988h4.039
		c1.335,0,1.822,0.477,1.822,1.897V39.307z"/>
</g>
<path fill-rule="evenodd" clip-rule="evenodd" fill="#223D7D" d="M155.052,22.904v4.155h7.508v3.971h-7.508v4.685h9.611v3.938
	h-13.696V18.965h13.696v3.938H155.052L155.052,22.904z M177.487,39.652l-3.273-5.179l-3.334,5.179h-4.864l5.617-7.721l-5.197-7.198
	h4.866l2.913,4.622l2.853-4.622h4.895l-5.166,7.198l5.588,7.721H177.487L177.487,39.652z M192.476,24.424
	c1.239,0,2.351,0.326,3.332,0.978s1.742,1.566,2.282,2.744c0.541,1.179,0.812,2.534,0.812,4.063c0,1.51-0.271,2.854-0.812,4.029
	c-0.541,1.182-1.301,2.103-2.282,2.763c-0.981,0.663-2.093,0.993-3.332,0.993c-1.765,0-3.204-0.704-4.326-2.11v7.198h-3.815V24.734
	h3.575v2.108C189.03,25.231,190.552,24.424,192.476,24.424L192.476,24.424z M191.513,36.271c1.061,0,1.922-0.378,2.582-1.129
	c0.663-0.755,0.991-1.732,0.991-2.933c0-1.221-0.329-2.201-0.991-2.947c-0.66-0.744-1.521-1.116-2.582-1.116
	c-1.041,0-1.862,0.362-2.463,1.085c-0.601,0.725-0.9,1.715-0.9,2.979c0,1.261,0.3,2.254,0.9,2.977S190.472,36.271,191.513,36.271
	L191.513,36.271z M205.538,17.881v16.686c0,0.579,0.116,0.996,0.347,1.255c0.229,0.259,0.576,0.391,1.035,0.391
	c0.341,0,0.672-0.072,0.992-0.219l0.39,3.413c-0.619,0.267-1.47,0.401-2.551,0.401c-1.383,0-2.399-0.357-3.05-1.069
	c-0.65-0.715-0.975-1.867-0.975-3.457v-17.4H205.538L205.538,17.881z M216.771,39.994c-1.419,0-2.686-0.33-3.798-0.993
	c-1.111-0.66-1.978-1.581-2.597-2.763c-0.623-1.176-0.933-2.52-0.933-4.029c0-1.529,0.31-2.885,0.933-4.063
	c0.619-1.178,1.485-2.092,2.597-2.744c1.112-0.652,2.379-0.978,3.798-0.978c1.443,0,2.713,0.326,3.813,0.978
	c1.104,0.652,1.959,1.566,2.57,2.744c0.612,1.179,0.916,2.534,0.916,4.063c0,1.51-0.304,2.854-0.916,4.029
	c-0.611,1.182-1.466,2.103-2.57,2.763C219.483,39.664,218.214,39.994,216.771,39.994L216.771,39.994z M216.771,36.271
	c1.021,0,1.859-0.378,2.51-1.129c0.649-0.755,0.973-1.732,0.973-2.933s-0.323-2.178-0.973-2.931c-0.65-0.755-1.489-1.133-2.51-1.133
	c-1.039,0-1.886,0.377-2.536,1.133c-0.65,0.753-0.978,1.73-0.978,2.931s0.327,2.178,0.978,2.933
	C214.885,35.893,215.731,36.271,216.771,36.271L216.771,36.271z M234.223,24.518c0.639,0,1.258,0.123,1.861,0.371l-0.542,3.877
	c-0.481-0.185-0.992-0.28-1.531-0.28c-1.021,0-1.824,0.354-2.401,1.058c-0.58,0.703-0.874,1.744-0.874,3.131v6.979h-3.813V24.734
	h3.574V27.4C231.236,25.479,232.479,24.518,234.223,24.518L234.223,24.518z M250.53,31.932c0,0.619-0.042,1.124-0.123,1.518h-9.82
	c0.242,0.974,0.72,1.704,1.443,2.202c0.72,0.496,1.62,0.746,2.701,0.746c0.724,0,1.459-0.11,2.209-0.329
	c0.75-0.215,1.447-0.509,2.089-0.883l1.051,3.287c-0.724,0.496-1.559,0.874-2.509,1.133c-0.95,0.258-1.959,0.389-3.021,0.389
	c-1.538,0-2.9-0.317-4.082-0.945c-1.182-0.633-2.101-1.53-2.763-2.699c-0.662-1.168-0.989-2.547-0.989-4.141
	c0-1.529,0.293-2.885,0.885-4.063c0.589-1.178,1.409-2.092,2.464-2.744c1.051-0.652,2.247-0.978,3.586-0.978
	c1.343,0,2.532,0.314,3.575,0.946c1.042,0.632,1.851,1.514,2.431,2.653C250.238,29.159,250.53,30.461,250.53,31.932L250.53,31.932z
	 M243.712,27.804c-0.801,0-1.482,0.248-2.043,0.745c-0.563,0.495-0.933,1.179-1.113,2.047h6.188
	c-0.119-0.868-0.446-1.552-0.977-2.047C245.239,28.052,244.55,27.804,243.712,27.804L243.712,27.804z M260.74,24.518
	c0.643,0,1.263,0.123,1.862,0.371l-0.539,3.877c-0.48-0.185-0.992-0.28-1.531-0.28c-1.024,0-1.824,0.354-2.405,1.058
	c-0.581,0.703-0.869,1.744-0.869,3.131v6.979h-3.814V24.734h3.572V27.4C257.758,25.479,258.996,24.518,260.74,24.518L260.74,24.518z
	 M290.232,18.965v20.687h-5.434l-8.889-15.197v15.197h-4.087V18.965h5.438l8.889,15.199V18.965H290.232L290.232,18.965z
	 M307.203,31.932c0,0.619-0.038,1.124-0.12,1.518h-9.819c0.237,0.974,0.719,1.704,1.442,2.202c0.72,0.496,1.621,0.746,2.7,0.746
	c0.721,0,1.456-0.11,2.21-0.329c0.751-0.215,1.443-0.509,2.086-0.883l1.05,3.287c-0.719,0.496-1.554,0.874-2.504,1.133
	c-0.955,0.258-1.959,0.389-3.021,0.389c-1.543,0-2.901-0.317-4.083-0.945c-1.181-0.633-2.105-1.53-2.763-2.699
	c-0.662-1.168-0.993-2.547-0.993-4.141c0-1.529,0.296-2.885,0.885-4.063c0.594-1.178,1.412-2.092,2.463-2.744
	c1.056-0.652,2.248-0.978,3.592-0.978c1.343,0,2.531,0.314,3.574,0.946c1.039,0.632,1.851,1.514,2.432,2.653
	C306.915,29.159,307.203,30.461,307.203,31.932L307.203,31.932z M300.384,27.804c-0.8,0-1.481,0.248-2.04,0.745
	c-0.561,0.495-0.931,1.179-1.111,2.047h6.188c-0.118-0.868-0.445-1.552-0.977-2.047C301.912,28.052,301.227,27.804,300.384,27.804
	L300.384,27.804z M331.77,24.734l-4.233,14.918h-4.294l-3.095-9.719l-3.094,9.719h-4.295l-4.263-14.918h3.875l2.64,10.118
	l3.244-10.118h3.844l3.183,10.118l2.647-10.118H331.77L331.77,24.734z M333.663,35.341c1.262,0.768,2.632,1.148,4.114,1.148
	c0.742,0,1.339-0.119,1.789-0.358c0.449-0.238,0.673-0.54,0.673-0.913c0-0.33-0.181-0.589-0.539-0.775
	c-0.361-0.188-0.942-0.382-1.742-0.588c-1.002-0.29-1.828-0.581-2.479-0.87c-0.65-0.29-1.216-0.751-1.697-1.379
	c-0.48-0.633-0.72-1.486-0.72-2.562c0-1.466,0.496-2.603,1.485-3.41c0.993-0.807,2.371-1.21,4.13-1.21
	c0.881,0,1.743,0.094,2.586,0.278c0.839,0.187,1.581,0.445,2.221,0.777l-0.989,3.38c-1.201-0.62-2.437-0.932-3.694-0.932
	c-0.644,0-1.124,0.1-1.443,0.296c-0.318,0.196-0.481,0.461-0.481,0.791c0,0.394,0.192,0.684,0.574,0.869
	c0.376,0.184,0.988,0.391,1.827,0.621c0.981,0.266,1.79,0.541,2.421,0.823c0.631,0.278,1.182,0.716,1.65,1.315
	c0.47,0.601,0.704,1.418,0.704,2.452c0,1.529-0.558,2.722-1.682,3.58c-1.12,0.858-2.651,1.287-4.594,1.287
	c-1.901,0-3.572-0.373-5.015-1.115L333.663,35.341L333.663,35.341z M354.146,24.518c0.639,0,1.262,0.123,1.863,0.371l-0.543,3.877
	c-0.478-0.185-0.989-0.28-1.532-0.28c-1.019,0-1.82,0.354-2.4,1.058c-0.582,0.703-0.87,1.744-0.87,3.131v6.979h-3.817V24.734h3.574
	V27.4C351.164,25.479,352.404,24.518,354.146,24.518L354.146,24.518z M363.968,39.994c-1.42,0-2.687-0.33-3.798-0.993
	c-1.112-0.66-1.979-1.581-2.598-2.763c-0.624-1.176-0.932-2.52-0.932-4.029c0-1.529,0.308-2.885,0.932-4.063
	c0.619-1.178,1.485-2.092,2.598-2.744c1.111-0.652,2.378-0.978,3.798-0.978c1.442,0,2.712,0.326,3.813,0.978
	c1.101,0.652,1.958,1.566,2.57,2.744c0.608,1.179,0.916,2.534,0.916,4.063c0,1.51-0.308,2.854-0.916,4.029
	c-0.612,1.182-1.47,2.103-2.57,2.763C366.68,39.664,365.41,39.994,363.968,39.994L363.968,39.994z M363.968,36.271
	c1.02,0,1.858-0.378,2.509-1.129c0.649-0.755,0.974-1.732,0.974-2.933s-0.324-2.178-0.974-2.931
	c-0.65-0.755-1.489-1.133-2.509-1.133c-1.039,0-1.887,0.377-2.536,1.133c-0.65,0.753-0.978,1.73-0.978,2.931
	s0.327,2.178,0.978,2.933C362.081,35.893,362.929,36.271,363.968,36.271L363.968,36.271z M380.788,39.994
	c-1.424,0-2.689-0.33-3.803-0.993c-1.108-0.66-1.974-1.581-2.598-2.763c-0.619-1.176-0.932-2.52-0.932-4.029
	c0-1.529,0.313-2.885,0.932-4.063c0.624-1.178,1.489-2.092,2.598-2.744c1.113-0.652,2.379-0.978,3.803-0.978
	c1.438,0,2.713,0.326,3.813,0.978s1.954,1.566,2.566,2.744c0.611,1.179,0.915,2.534,0.915,4.063c0,1.51-0.304,2.854-0.915,4.029
	c-0.612,1.182-1.466,2.103-2.566,2.763C383.501,39.664,382.227,39.994,380.788,39.994L380.788,39.994z M380.788,36.271
	c1.021,0,1.855-0.378,2.506-1.129c0.648-0.755,0.976-1.732,0.976-2.933s-0.327-2.178-0.976-2.931
	c-0.65-0.755-1.485-1.133-2.506-1.133c-1.043,0-1.89,0.377-2.54,1.133c-0.65,0.753-0.978,1.73-0.978,2.931s0.327,2.178,0.978,2.933
	C378.898,35.893,379.745,36.271,380.788,36.271L380.788,36.271z M407.186,24.424c1.602,0,2.853,0.548,3.752,1.643
	c0.904,1.097,1.354,2.627,1.354,4.592v8.993h-3.813v-8.158c0-1.137-0.193-1.979-0.573-2.526c-0.382-0.549-0.97-0.823-1.771-0.823
	c-0.822,0-1.462,0.265-1.924,0.791c-0.461,0.526-0.688,1.266-0.688,2.22v8.496h-3.817v-8.158c0-2.232-0.801-3.349-2.402-3.349
	c-0.8,0-1.428,0.265-1.878,0.791s-0.672,1.266-0.672,2.22v8.496h-3.814V24.734h3.571v1.985c0.399-0.765,0.962-1.339,1.682-1.721
	c0.723-0.383,1.531-0.574,2.432-0.574c0.942,0,1.762,0.203,2.467,0.604c0.7,0.403,1.251,0.998,1.65,1.785
	c0.438-0.787,1.051-1.381,1.832-1.785C405.355,24.627,406.224,24.424,407.186,24.424z"/>
<rect x="138.384" y="18.408" fill-rule="evenodd" clip-rule="evenodd" fill="#223D7D" width="0.772" height="23.184"/>
</svg>
